<?xml version="1.0" encoding="UTF-8" standalone="no"?>
<svg width="125px" height="205px" viewBox="0 0 125 205" version="1.1" xmlns="http://www.w3.org/2000/svg" xmlns:xlink="http://www.w3.org/1999/xlink" xmlns:sketch="http://www.bohemiancoding.com/sketch/ns">
    <!-- Generator: Sketch 3.3.2 (12043) - http://www.bohemiancoding.com/sketch -->
    <title>arrow-right</title>
    <desc>Created with Sketch.</desc>
    <defs></defs>
    <g id="Icons" stroke="none" stroke-width="1" fill="none" fill-rule="evenodd" sketch:type="MSPage">
        <g id="leichtr-font" sketch:type="MSArtboardGroup" transform="translate(-329.000000, -21.000000)" fill="#000000">
            <g id="arrow-right" sketch:type="MSLayerGroup" transform="translate(391.500000, 124.000000) rotate(-180.000000) translate(-391.500000, -124.000000) translate(329.000000, 21.000000)">
                <path d="M113.532491,114.012855 L124.085711,103.5 L113.532491,92.987145 L21.1921514,1 L0.0857109441,22.02571 L82.2134117,103.5 L0.0857109441,184.97429 L21.1921514,206 L113.532491,114.012855 Z" id="Path-16" sketch:type="MSShapeGroup" transform="translate(62.085711, 103.500000) rotate(-180.000000) translate(-62.085711, -103.500000) "></path>
            </g>
        </g>
    </g>
</svg>