<?xml version="1.0" encoding="UTF-8" standalone="no"?>
<svg width="200px" height="200px" viewBox="0 0 200 200" version="1.1" xmlns="http://www.w3.org/2000/svg" xmlns:xlink="http://www.w3.org/1999/xlink" xmlns:sketch="http://www.bohemiancoding.com/sketch/ns">
    <!-- Generator: Sketch 3.3.2 (12043) - http://www.bohemiancoding.com/sketch -->
    <title>overview</title>
    <desc>Created with Sketch.</desc>
    <defs></defs>
    <g id="Icons" stroke="none" stroke-width="1" fill="none" fill-rule="evenodd" sketch:type="MSPage">
        <g id="overview" sketch:type="MSArtboardGroup" fill="#000000">
            <g sketch:type="MSLayerGroup" transform="translate(15.000000, 73.000000)" id="Overview-Icon">
                <path d="M23.5717054,45.5172414 C36.2282309,45.5172414 46.4883721,35.3278598 46.4883721,22.7586207 C46.4883721,10.1893816 36.2282309,0 23.5717054,0 C10.9151799,0 0.65503876,10.1893816 0.65503876,22.7586207 C0.65503876,35.3278598 10.9151799,45.5172414 23.5717054,45.5172414 Z M84.3275194,45.5172414 C96.9840449,45.5172414 107.244186,35.3278598 107.244186,22.7586207 C107.244186,10.1893816 96.9840449,0 84.3275194,0 C71.6709939,0 61.4108527,10.1893816 61.4108527,22.7586207 C61.4108527,35.3278598 71.6709939,45.5172414 84.3275194,45.5172414 Z M145.083333,45.5172414 C157.739859,45.5172414 168,35.3278598 168,22.7586207 C168,10.1893816 157.739859,0 145.083333,0 C132.426808,0 122.166667,10.1893816 122.166667,22.7586207 C122.166667,35.3278598 132.426808,45.5172414 145.083333,45.5172414 Z" sketch:type="MSShapeGroup"></path>
            </g>
        </g>
    </g>
</svg>